<?xml version="1.0" encoding="UTF-8" standalone="no"?>
<!-- Created with Inkscape (http://www.inkscape.org/) -->

<svg
   xmlns:dc="http://purl.org/dc/elements/1.1/"
   xmlns:cc="http://creativecommons.org/ns#"
   xmlns:rdf="http://www.w3.org/1999/02/22-rdf-syntax-ns#"
   xmlns:svg="http://www.w3.org/2000/svg"
   xmlns="http://www.w3.org/2000/svg"
   version="1.1"
   width="32"
   height="26.38022"
   id="svg2">
  <defs
     id="defs4" />
  <metadata
     id="metadata7">
    <rdf:RDF>
      <cc:Work
         rdf:about="">
        <dc:format>image/svg+xml</dc:format>
        <dc:type
           rdf:resource="http://purl.org/dc/dcmitype/StillImage" />
        <dc:title></dc:title>
      </cc:Work>
    </rdf:RDF>
  </metadata>
  <g
     transform="translate(-290.74764,-502.64395)"
     id="layer1">
    <path
       d="m 321.74764,506.52995 c -1.1037,0.4896 -2.29005,0.82035 -3.5349,0.96915 1.27065,-0.7617 2.2467,-1.96785 2.70615,-3.40515 -1.18935,0.70545 -2.5065,1.21755 -3.90854,1.49355 -1.1226,-1.19625 -2.7222,-1.94355 -4.4925,-1.94355 -3.39899,0 -6.15494,2.75565 -6.15494,6.15464 0,0.4824 0.0544,0.9522 0.15945,1.40265 -5.1153,-0.25665 -9.65039,-2.70705 -12.68609,-6.43079 -0.5298,0.909 -0.83339,1.9662 -0.83339,3.0942 0,2.13539 1.08659,4.01924 2.73809,5.12294 -1.0089,-0.0319 -1.95794,-0.30885 -2.78774,-0.7698 -7.9e-4,0.0256 -7.9e-4,0.0514 -7.9e-4,0.0774 0,2.982 2.1216,5.46944 4.93724,6.03524 -0.51644,0.1407 -1.0602,0.21585 -1.62149,0.21585 -0.3966,0 -0.7821,-0.0387 -1.158,-0.1104 0.7833,2.44515 3.05624,4.2246 5.74964,4.2741 -2.10645,1.65089 -4.76024,2.63489 -7.64399,2.63489 -0.4968,0 -0.9867,-0.0293 -1.4682,-0.0861 2.72385,1.74645 5.95904,2.7654 9.43484,2.7654 11.32093,0 17.51188,-9.37844 17.51188,-17.51203 0,-0.26685 -0.006,-0.5322 -0.0179,-0.79635 1.2024,-0.8676 2.2458,-1.9515 3.07095,-3.18584 z"
       id="path5"
       style="fill:#ffffff" />
  </g>
</svg>
